{
    "name": "Clara",
    "script": "./bot.js",
    "error_file": "../logs/err.log",
    "out_file": "../logs/out.log",
    "log_date_format": "YYYY-MM-DD HH:mm Z",
    "watch": ["./bot.js"],
    "ignore_watch": ["data", "logs", "cmd", "cache", "node_modules"],
    "args": ["--color"]
}